-120 -248 -120 480
-992
-80 80 -80 80 -80 -88 456
-80 80 -80 728
-160 496 -160 152
-160 -160 -320 -160 -160
992
-160 824
-160 -160 656
152 -48 -56 -64 -72 -80 472
-80 -88 48 -56 -48 -40 -32 -24 -16 -8 472
-160 152 -160 -160 328
-488 -496
-120 -112 -240 -496
-488 -240 -120 -56 -24 -8 8
-8 8 -8 944
-16 -8 -32 912
8 -24 -56 -120 -248 -16 472
-240 -120 112 -240 -120 -120
152 -96 728
240 -240 240 -248
992
